IS415-GAA - Take Home Exercise 2
…
Areas with higher Gi values in Getis-Ord Gi analysis represent hotspots, in which regions with a higher than expected GDP per capita cluster together. Note that hotspots and coldspots are not considered outliers.

HCSA <- wm_idw %>%
  mutate(local_Gi = local_gstar_perm(cases, nb, wt, nsim = 99), .before = 1) %>% unnest(local_Gi)
HCSA

Simple feature collection with 77 features and 15 fields
Geometry type: MULTIPOLYGON
Dimension:     XY
Bounding box:  xmin: 97.34336 ymin: 5.613038 xmax: 105.637 ymax: 20.46507
Geodetic CRS:  WGS 84
# A tibble: 77 × 16
   gi_star cluster   e_gi    var_gi  std_dev p_value p_sim p_folded_sim skewness
     <dbl> <fct>    <dbl>     <dbl>    <dbl>   <dbl> <dbl>        <dbl>    <dbl>
 1   1.75  High    0.0206   7.82e-6 -0.210     0.834  1            0.5     0.486
 2   2.06  High    0.0205   2.54e-5  0.747     0.455  0.4          0.2     1.34 
 3   1.14  High    0.0165   1.22e-5  0.417     0.677  0.66         0.33    0.814
 4   1.71  High    0.0191   2.19e-5  0.689     0.491  0.38         0.19    1.25 
 5   0.735 High    0.0162   1.69e-5  0.00829   0.993  0.8          0.4     0.968
 6   0.502 High    0.0150   1.63e-5  0.0406    0.968  0.86         0.43    1.14 
 7   0.643 High    0.0142   1.01e-5  0.314     0.754  0.62         0.31    0.797
 8   2.16  High    0.0180   3.09e-5  1.55      0.121  0.18         0.09    1.52 
 9   0.538 High    0.0141   9.46e-6  0.214     0.831  0.76         0.38    0.745
10   1.58  High    0.0150   1.81e-5  1.56      0.119  0.2          0.1     1.35 
# ℹ 67 more rows
# ℹ 7 more variables: kurtosis <dbl>, wts <list>, wt <list>, nb <nb>,
#   ADM1_EN <chr>, cases <dbl>, geometry <MULTIPOLYGON [°]>
…
