IS415-GAA - Take Home Exercise 1
…
conflict_data <- read_csv("data/2021-08-31-2024-06-30-Myanmar.csv")

Rows: 41275 Columns: 31
── Column specification ────────────────────────────────────────────────────────
Delimiter: ","
chr (20): event_id_cnty, event_date, disorder_type, event_type, sub_event_ty...
dbl (11): year, time_precision, inter1, inter2, interaction, iso, latitude, ...

ℹ Use `spec()` to retrieve the full column specification for this data.
ℹ Specify the column types or set `show_col_types = FALSE` to quiet this message.

list(conflict_data)

[[1]]
# A tibble: 41,275 × 31
   event_id_cnty event_date    year time_precision disorder_type      event_type
   <chr>         <chr>        <dbl>          <dbl> <chr>              <chr>     
 1 MMR64313      30 June 2024  2024              1 Political violence Battles   
 2 MMR64320      30 June 2024  2024              1 Political violence Battles   
 3 MMR64321      30 June 2024  2024              1 Political violence Battles   
 4 MMR64322      30 June 2024  2024              1 Strategic develop… Strategic…
 5 MMR64323      30 June 2024  2024              1 Political violence Battles   
 6 MMR64324      30 June 2024  2024              1 Strategic develop… Strategic…
 7 MMR64325      30 June 2024  2024              1 Political violence Battles   
 8 MMR64326      30 June 2024  2024              1 Political violence Battles   
 9 MMR64328      30 June 2024  2024              1 Political violence Battles   
10 MMR64330      30 June 2024  2024              1 Political violence Battles   
# ℹ 41,265 more rows
# ℹ 25 more variables: sub_event_type <chr>, actor1 <chr>, assoc_actor_1 <chr>,
#   inter1 <dbl>, actor2 <chr>, assoc_actor_2 <chr>, inter2 <dbl>,
#   interaction <dbl>, civilian_targeting <chr>, iso <dbl>, region <chr>,
#   country <chr>, admin1 <chr>, admin2 <chr>, admin3 <chr>, location <chr>,
#   latitude <dbl>, longitude <dbl>, geo_precision <dbl>, source <chr>,
#   source_scale <chr>, notes <chr>, fatalities <dbl>, tags <chr>, …

We have the latitude and longitude of event locations. We need to convert them into SFOs such that we can work with them using the sf library. Additionally, we need to normalise the dates such that they are all standardised into the same format that is computer readable.

conflict_data <- conflict_data %>% st_as_sf(coords = c("longitude", "latitude"), crs = 4326) %>% st_transform(crs = 32647) %>% mutate(event_date = dmy(event_date))
list(conflict_data)

[[1]]
Simple feature collection with 41275 features and 29 fields
Geometry type: POINT
Dimension:     XY
Bounding box:  xmin: -208804.4 ymin: 1103500 xmax: 640934.5 ymax: 3042960
Projected CRS: WGS 84 / UTM zone 47N
# A tibble: 41,275 × 30
   event_id_cnty event_date  year time_precision disorder_type        event_type
 * <chr>         <date>     <dbl>          <dbl> <chr>                <chr>     
 1 MMR64313      2024-06-30  2024              1 Political violence   Battles   
 2 MMR64320      2024-06-30  2024              1 Political violence   Battles   
 3 MMR64321      2024-06-30  2024              1 Political violence   Battles   
 4 MMR64322      2024-06-30  2024              1 Strategic developme… Strategic…
 5 MMR64323      2024-06-30  2024              1 Political violence   Battles   
 6 MMR64324      2024-06-30  2024              1 Strategic developme… Strategic…
 7 MMR64325      2024-06-30  2024              1 Political violence   Battles   
 8 MMR64326      2024-06-30  2024              1 Political violence   Battles   
 9 MMR64328      2024-06-30  2024              1 Political violence   Battles   
10 MMR64330      2024-06-30  2024              1 Political violence   Battles   
# ℹ 41,265 more rows
# ℹ 24 more variables: sub_event_type <chr>, actor1 <chr>, assoc_actor_1 <chr>,
#   inter1 <dbl>, actor2 <chr>, assoc_actor_2 <chr>, inter2 <dbl>,
#   interaction <dbl>, civilian_targeting <chr>, iso <dbl>, region <chr>,
#   country <chr>, admin1 <chr>, admin2 <chr>, admin3 <chr>, location <chr>,
#   geo_precision <dbl>, source <chr>, source_scale <chr>, notes <chr>,
#   fatalities <dbl>, tags <chr>, timestamp <dbl>, geometry <POINT [m]>
…
